{
    "name": {
        "validators": {
            "required": {
                "label": "&NAME",
                "message": "VALIDATE.REQUIRED"
            },
            "length": {
                "label": "&NAME",
                "min": 1,
                "max": 255,
                "message": "VALIDATE.LENGTH_RANGE"
            }
        },
        "transformations": ["trim"]
    },
    "description": {
        "validators": {},
        "sanitizers": {
            "raw": ""
        }
    },
    "draft": {
        "validators": {},
        "sanitizers": {
            "raw": ""
        }
    },
    "approved": {
        "validators": {},
        "sanitizers": {
            "raw": ""
        }
    },
    "quantity": {
        "validators": {},
        "sanitizers": {
            "raw": ""
        }
    },
    "supplier_id": {
        "validators": {
            "required": {
                "label": "&SUPPLIER",
                "message": "VALIDATE.REQUIRED"
            }
        }
    },
    "category_id": {
        "validators": {
            "required": {
                "label": "&CATEGORY",
                "message": "VALIDATE.REQUIRED"
            }
        },
        "sanitizers": {
            "raw": ""
        }
    },
    "subcategory_id": {
        "validators": {},
        "sanitizers": {
            "raw": ""
        }
    },
    "price": {
        "validators": {
            "required": {
                "label": "&PRICE",
                "message": "VALIDATE.REQUIRED"
            }
        }
    },
    "featured": {
        "validators": {},
        "sanitizers": {
            "raw": ""
        }
    },
    "discount_price": {
        "validators": {
            "required": {
                "label": "&PRICE",
                "message": "VALIDATE.REQUIRED"
            }
        }
    }
}