{
    "variant_id": {
        "validators": {},
        "sanitizers": {
            "raw": ""
        }
    },
    "caption": {
        "validators": {},
        "sanitizers": {
            "raw": ""
        }
    },
    "highlight": {
        "validators": {},
        "sanitizers": {
            "raw": ""
        }
    }
}