{
    "name": {
        "validators": {
            "required": {
                "label": "&NAME",
                "message": "VALIDATE.REQUIRED"
            },
            "length": {
                "label": "&NAME",
                "min": 1,
                "max": 255,
                "message": "VALIDATE.LENGTH_RANGE"
            }
        },
        "transformations": ["trim"]
    },
    "fee": {
        "validators": {},
        "sanitizers": {
            "raw": ""
        }
    },
    "parent_id": {
        "validators": {},
        "sanitizers": {
            "raw": ""
        }
    }
}