 {
     "day": {
         "validators": {
             "required": {
                 "label": "&DAY",
                 "message": "VALIDATE.REQUIRED"
             }
         }
     },
     "hour": {
         "validators": {
             "required": {
                 "label": "&HOUR",
                 "message": "VALIDATE.REQUIRED"
             }
         }
     },
     "minute": {
         "validators": {
             "required": {
                 "label": "&MINUTE",
                 "message": "VALIDATE.REQUIRED"
             }
         }
     },
     "pm": {
         "validators": {
             "required": {
                 "label": "&PM",
                 "message": "VALIDATE.REQUIRED"
             }
         }
     },
     "length": {
         "validators": {
             "required": {
                 "label": "&LENGTH",
                 "message": "VALIDATE.REQUIRED"
             }
         }
     },
     "active": {
         "validators": {
             "required": {
                 "label": "&ACTIVE",
                 "message": "VALIDATE.REQUIRED"
             }
         }
     },
     "type": {
         "validators": {
             "required": {
                 "label": "&TYPE",
                 "message": "VALIDATE.REQUIRED"
             }
         }
     }
 }